…
```
## See spec(...) for full column specifications.
```

```r
fisheries
```

```
## # A tibble: 17,692 x 71
##    Country `Common name` `ISSCAAP group#` `ISSCAAP taxono~ `ASFIS species#`
##    <chr>   <chr>                    <dbl> <chr>            <chr>           
##  1 Albania Angelsharks,~               38 Sharks, rays, c~ 10903XXXXX      
##  2 Albania Atlantic bon~               36 Tunas, bonitos,~ 1750100101      
##  3 Albania Barracudas n~               37 Miscellaneous p~ 17710001XX      
##  4 Albania Blue and red~               45 Shrimps, prawns  2280203101      
##  5 Albania Blue whiting~               32 Cods, hakes, ha~ 1480403301      
##  6 Albania Bluefish                    37 Miscellaneous p~ 1702021301      
##  7 Albania Bogue                       33 Miscellaneous c~ 1703926101      
##  8 Albania Caramote pra~               45 Shrimps, prawns  2280100117      
##  9 Albania Catsharks, n~               38 Sharks, rays, c~ 10801003XX      
## 10 Albania Common cuttl~               57 Squids, cuttlef~ 3210200202      
## # ... with 17,682 more rows, and 66 more variables: `ASFIS species name` <chr>,
## #   `FAO major fishing area` <dbl>, Measure <chr>, `1950` <chr>, `1951` <chr>,
## #   `1952` <chr>, `1953` <chr>, `1954` <chr>, `1955` <chr>, `1956` <chr>,
## #   `1957` <chr>, `1958` <chr>, `1959` <chr>, `1960` <chr>, `1961` <chr>,
## #   `1962` <chr>, `1963` <chr>, `1964` <chr>, `1965` <chr>, `1966` <chr>,
## #   `1967` <chr>, `1968` <chr>, `1969` <chr>, `1970` <chr>, `1971` <chr>,
## #   `1972` <chr>, `1973` <chr>, `1974` <chr>, `1975` <chr>, `1976` <chr>,
## #   `1977` <chr>, `1978` <chr>, `1979` <chr>, `1980` <chr>, `1981` <chr>,
## #   `1982` <chr>, `1983` <chr>, `1984` <chr>, `1985` <chr>, `1986` <chr>,
…
## Warning: NAs introduced by coercion

## Warning: NAs introduced by coercion

## Warning: NAs introduced by coercion

## Warning: NAs introduced by coercion
```

```r
fisheries
```

```
## # A tibble: 17,692 x 71
##    Country `Common name` `ISSCAAP group#` `ISSCAAP taxono~ `ASFIS species#`
##    <fct>   <fct>         <fct>            <fct>            <fct>           
##  1 Albania Angelsharks,~ 38               Sharks, rays, c~ 10903XXXXX      
##  2 Albania Atlantic bon~ 36               Tunas, bonitos,~ 1750100101      
##  3 Albania Barracudas n~ 37               Miscellaneous p~ 17710001XX      
##  4 Albania Blue and red~ 45               Shrimps, prawns  2280203101      
##  5 Albania Blue whiting~ 32               Cods, hakes, ha~ 1480403301      
##  6 Albania Bluefish      37               Miscellaneous p~ 1702021301      
##  7 Albania Bogue         33               Miscellaneous c~ 1703926101      
##  8 Albania Caramote pra~ 45               Shrimps, prawns  2280100117      
##  9 Albania Catsharks, n~ 38               Sharks, rays, c~ 10801003XX      
## 10 Albania Common cuttl~ 57               Squids, cuttlef~ 3210200202      
## # ... with 17,682 more rows, and 66 more variables: `ASFIS species name` <fct>,
## #   `FAO major fishing area` <fct>, Measure <fct>, `1950` <dbl>, `1951` <dbl>,
## #   `1952` <dbl>, `1953` <dbl>, `1954` <dbl>, `1955` <dbl>, `1956` <dbl>,
## #   `1957` <dbl>, `1958` <dbl>, `1959` <dbl>, `1960` <dbl>, `1961` <dbl>,
## #   `1962` <dbl>, `1963` <dbl>, `1964` <dbl>, `1965` <dbl>, `1966` <dbl>,
## #   `1967` <dbl>, `1968` <dbl>, `1969` <dbl>, `1970` <dbl>, `1971` <dbl>,
## #   `1972` <dbl>, `1973` <dbl>, `1974` <dbl>, `1975` <dbl>, `1976` <dbl>,
## #   `1977` <dbl>, `1978` <dbl>, `1979` <dbl>, `1980` <dbl>, `1981` <dbl>,
## #   `1982` <dbl>, `1983` <dbl>, `1984` <dbl>, `1985` <dbl>, `1986` <dbl>,
…
```
## [1] 204
```


6. What are the names of the countries?

```r
fisheries %>% count(Country)
```

```
## # A tibble: 204 x 2
##    Country                 n
##    <fct>               <int>
##  1 Albania                67
##  2 Algeria                59
##  3 American Samoa         32
##  4 Angola                 88
##  5 Anguilla                3
##  6 Antigua and Barbuda    22
##  7 Argentina             140
##  8 Aruba                   5
##  9 Australia             301
## 10 Bahamas                14
## # ... with 194 more rows
```
…
```r
fisheries <- fisheries %>% dplyr::rename(
  country='Country',
  commname='Common name',
  ASFIS_sciname='ASFIS species name',
  ASFIS_spcode='ASFIS species#',
  ISSCAAP_spgroup='ISSCAAP group#',
  ISSCAAP_spgroupname='ISSCAAP taxonomic group'
)
fisheries
```

```
## # A tibble: 17,692 x 71
##    country commname ISSCAAP_spgroup ISSCAAP_spgroup~ ASFIS_spcode ASFIS_sciname
##    <fct>   <fct>    <fct>           <fct>            <fct>        <fct>        
##  1 Albania Angelsh~ 38              Sharks, rays, c~ 10903XXXXX   Squatinidae  
##  2 Albania Atlanti~ 36              Tunas, bonitos,~ 1750100101   Sarda sarda  
##  3 Albania Barracu~ 37              Miscellaneous p~ 17710001XX   Sphyraena spp
##  4 Albania Blue an~ 45              Shrimps, prawns  2280203101   Aristeus ant~
##  5 Albania Blue wh~ 32              Cods, hakes, ha~ 1480403301   Micromesisti~
##  6 Albania Bluefish 37              Miscellaneous p~ 1702021301   Pomatomus sa~
##  7 Albania Bogue    33              Miscellaneous c~ 1703926101   Boops boops  
##  8 Albania Caramot~ 45              Shrimps, prawns  2280100117   Penaeus kera~
##  9 Albania Catshar~ 38              Sharks, rays, c~ 10801003XX   Scyliorhinus~
## 10 Albania Common ~ 57              Squids, cuttlef~ 3210200202   Sepia offici~
## # ... with 17,682 more rows, and 65 more variables: `FAO major fishing
## #   area` <fct>, Measure <fct>, `1950` <dbl>, `1951` <dbl>, `1952` <dbl>,
## #   `1953` <dbl>, `1954` <dbl>, `1955` <dbl>, `1956` <dbl>, `1957` <dbl>,
## #   `1958` <dbl>, `1959` <dbl>, `1960` <dbl>, `1961` <dbl>, `1962` <dbl>,
## #   `1963` <dbl>, `1964` <dbl>, `1965` <dbl>, `1966` <dbl>, `1967` <dbl>,
## #   `1968` <dbl>, `1969` <dbl>, `1970` <dbl>, `1971` <dbl>, `1972` <dbl>,
## #   `1973` <dbl>, `1974` <dbl>, `1975` <dbl>, `1976` <dbl>, `1977` <dbl>,
## #   `1978` <dbl>, `1979` <dbl>, `1980` <dbl>, `1981` <dbl>, `1982` <dbl>,
## #   `1983` <dbl>, `1984` <dbl>, `1985` <dbl>, `1986` <dbl>, `1987` <dbl>,
…
8. Are these data tidy? Why or why not, and, how do you know? Use the appropriate pivot function to tidy the data. Remove the NA's. Put the tidy data frame into a new object `fisheries_tidy`.  
+ These data are not tidy! Look at all those columns as years, which should just be another variable.

```r
fisheries_tidy <- fisheries %>%
  pivot_longer('1950':'2012',
               names_to = "year",
               values_to = "catch",
               values_drop_na = TRUE
               )
fisheries_tidy
```

```
## # A tibble: 357,807 x 10
##    country commname ISSCAAP_spgroup ISSCAAP_spgroup~ ASFIS_spcode ASFIS_sciname
##    <fct>   <fct>    <fct>           <fct>            <fct>        <fct>        
##  1 Albania Angelsh~ 38              Sharks, rays, c~ 10903XXXXX   Squatinidae  
##  2 Albania Angelsh~ 38              Sharks, rays, c~ 10903XXXXX   Squatinidae  
##  3 Albania Angelsh~ 38              Sharks, rays, c~ 10903XXXXX   Squatinidae  
##  4 Albania Angelsh~ 38              Sharks, rays, c~ 10903XXXXX   Squatinidae  
##  5 Albania Angelsh~ 38              Sharks, rays, c~ 10903XXXXX   Squatinidae  
##  6 Albania Angelsh~ 38              Sharks, rays, c~ 10903XXXXX   Squatinidae  
##  7 Albania Angelsh~ 38              Sharks, rays, c~ 10903XXXXX   Squatinidae  
##  8 Albania Angelsh~ 38              Sharks, rays, c~ 10903XXXXX   Squatinidae  
##  9 Albania Angelsh~ 38              Sharks, rays, c~ 10903XXXXX   Squatinidae  
## 10 Albania Angelsh~ 38              Sharks, rays, c~ 10903XXXXX   Squatinidae  
## # ... with 357,797 more rows, and 4 more variables: `FAO major fishing
## #   area` <fct>, Measure <fct>, year <chr>, catch <dbl>
```



9. Refocus the data only to include country, ISSCAAP_spgroupname, ASFIS_spcode, ASFIS_sciname, year, and catch.

```r
fisheries_tidy2 <- select(fisheries_tidy, country, ISSCAAP_spgroupname, ASFIS_spcode, ASFIS_sciname, year, catch)
fisheries_tidy2
```

```
## # A tibble: 357,807 x 6
##    country ISSCAAP_spgroupname     ASFIS_spcode ASFIS_sciname year  catch
##    <fct>   <fct>                   <fct>        <fct>         <chr> <dbl>
##  1 Albania Sharks, rays, chimaeras 10903XXXXX   Squatinidae   1996     53
##  2 Albania Sharks, rays, chimaeras 10903XXXXX   Squatinidae   1997     20
##  3 Albania Sharks, rays, chimaeras 10903XXXXX   Squatinidae   1998     31
##  4 Albania Sharks, rays, chimaeras 10903XXXXX   Squatinidae   1999     30
##  5 Albania Sharks, rays, chimaeras 10903XXXXX   Squatinidae   2000     30
##  6 Albania Sharks, rays, chimaeras 10903XXXXX   Squatinidae   2001     16
##  7 Albania Sharks, rays, chimaeras 10903XXXXX   Squatinidae   2002     79
##  8 Albania Sharks, rays, chimaeras 10903XXXXX   Squatinidae   2003      1
##  9 Albania Sharks, rays, chimaeras 10903XXXXX   Squatinidae   2004      4
## 10 Albania Sharks, rays, chimaeras 10903XXXXX   Squatinidae   2005     68
## # ... with 357,797 more rows
```


10. Re-check the classes of `fisheries_tidy2`. Notice that "catch" is shown as a character! This is a problem because we will want to treat it as a numeric. How will you deal with this?

```r
fisheries_tidy2 <- fisheries_tidy2 %>%
  mutate_at("catch", as.numeric)
fisheries_tidy2
```

```
## # A tibble: 357,807 x 6
##    country ISSCAAP_spgroupname     ASFIS_spcode ASFIS_sciname year  catch
##    <fct>   <fct>                   <fct>        <fct>         <chr> <dbl>
##  1 Albania Sharks, rays, chimaeras 10903XXXXX   Squatinidae   1996     53
##  2 Albania Sharks, rays, chimaeras 10903XXXXX   Squatinidae   1997     20
##  3 Albania Sharks, rays, chimaeras 10903XXXXX   Squatinidae   1998     31
##  4 Albania Sharks, rays, chimaeras 10903XXXXX   Squatinidae   1999     30
##  5 Albania Sharks, rays, chimaeras 10903XXXXX   Squatinidae   2000     30
##  6 Albania Sharks, rays, chimaeras 10903XXXXX   Squatinidae   2001     16
##  7 Albania Sharks, rays, chimaeras 10903XXXXX   Squatinidae   2002     79
##  8 Albania Sharks, rays, chimaeras 10903XXXXX   Squatinidae   2003      1
##  9 Albania Sharks, rays, chimaeras 10903XXXXX   Squatinidae   2004      4
## 10 Albania Sharks, rays, chimaeras 10903XXXXX   Squatinidae   2005     68
## # ... with 357,797 more rows
```
…
