…
**1. Use the function(s) of your choice to get an idea of the overall structure of the data frame, including its dimensions, column names, variable classes, etc. As part of this, determine if there are NA's and how they are treated.**  


```r
UC_admit
```

```
## # A tibble: 2,160 x 6
##    Campus Academic_Yr Category   Ethnicity        `Perc FR` FilteredCountFR
##    <chr>        <dbl> <chr>      <chr>            <chr>               <dbl>
##  1 Davis         2019 Applicants International    21.16%              16522
##  2 Davis         2019 Applicants Unknown          2.51%                1959
##  3 Davis         2019 Applicants White            18.39%              14360
##  4 Davis         2019 Applicants Asian            30.76%              24024
##  5 Davis         2019 Applicants Chicano/Latino   22.44%              17526
##  6 Davis         2019 Applicants American Indian  0.35%                 277
##  7 Davis         2019 Applicants African American 4.39%                3425
##  8 Davis         2019 Applicants All              100.00%             78093
##  9 Davis         2018 Applicants International    19.87%              15507
## 10 Davis         2018 Applicants Unknown          2.83%                2208
## # ... with 2,150 more rows
```
…
```
## [1] 2160    6
```

**2. The president of UC has asked you to build a shiny app that shows admissions by ethnicity across all UC campuses. Your app should allow users to explore year, campus, and admit category as interactive variables. Use shiny dashboard and try to incorporate the aesthetics you have learned in ggplot to make the app neat and clean.**


```r
UC_admit2 <- UC_admit %>% mutate(Academic_Yr = as_factor(Academic_Yr))
UC_admit2
```

```
## # A tibble: 2,160 x 6
##    Campus Academic_Yr Category   Ethnicity        `Perc FR` FilteredCountFR
##    <chr>  <fct>       <chr>      <chr>            <chr>               <dbl>
##  1 Davis  2019        Applicants International    21.16%              16522
##  2 Davis  2019        Applicants Unknown          2.51%                1959
##  3 Davis  2019        Applicants White            18.39%              14360
##  4 Davis  2019        Applicants Asian            30.76%              24024
##  5 Davis  2019        Applicants Chicano/Latino   22.44%              17526
##  6 Davis  2019        Applicants American Indian  0.35%                 277
##  7 Davis  2019        Applicants African American 4.39%                3425
##  8 Davis  2019        Applicants All              100.00%             78093
##  9 Davis  2018        Applicants International    19.87%              15507
## 10 Davis  2018        Applicants Unknown          2.83%                2208
## # ... with 2,150 more rows
```
…
